<svg width="19" height="21" viewBox="0 0 19 21" fill="none" xmlns="http://www.w3.org/2000/svg">
<path d="M16.573 17.4341H14.3379V3.27877C14.3379 3.20821 14.3119 3.14013 14.2649 3.08753C14.2179 3.03493 14.1531 3.0015 14.083 2.99363L6.53611 2.14182C6.49595 2.13729 6.45528 2.1413 6.41678 2.15357C6.37827 2.16584 6.34278 2.18611 6.31265 2.21304C6.28251 2.23997 6.2584 2.27296 6.24189 2.30985C6.22538 2.34675 6.21685 2.38671 6.21685 2.42713V2.99166H2.94938C2.87323 2.99166 2.80021 3.02191 2.74636 3.07576C2.69252 3.1296 2.66227 3.20263 2.66227 3.27877V17.4341H0.427246C0.3511 17.4341 0.278073 17.4643 0.224229 17.5182C0.170386 17.572 0.140137 17.6451 0.140137 17.7212C0.140137 17.7973 0.170386 17.8704 0.224229 17.9242C0.278073 17.9781 0.3511 18.0083 0.427246 18.0083H6.21685V18.5728C6.21685 18.649 6.2471 18.722 6.30094 18.7759C6.35478 18.8297 6.42781 18.86 6.50396 18.86C6.51492 18.86 6.52588 18.8594 6.53677 18.8582L14.0672 18.0083H16.5735C16.6496 18.0083 16.7226 17.9781 16.7765 17.9242C16.8303 17.8704 16.8606 17.7973 16.8606 17.7212C16.8606 17.6451 16.8303 17.572 16.7765 17.5182C16.7226 17.4643 16.6496 17.4341 16.5735 17.4341H16.573ZM3.23649 3.56588H6.21685V4.30417H4.26171C4.18557 4.30417 4.11254 4.33441 4.0587 4.38826C4.00485 4.4421 3.97461 4.51513 3.97461 4.59127V17.4341H3.23632L3.23649 3.56588ZM4.54899 17.4341V4.87838H6.21685V17.4341H4.54899ZM6.79107 2.74836L13.7637 3.53586V17.4648L6.79107 18.2523V2.74836Z" fill="white"/>
<path d="M8.02827 9.64551C7.85927 9.64551 7.69408 9.69562 7.55357 9.78951C7.41305 9.88339 7.30354 10.0168 7.23887 10.173C7.1742 10.3291 7.15728 10.5009 7.19025 10.6666C7.22322 10.8324 7.30459 10.9846 7.42409 11.1041C7.54358 11.2236 7.69583 11.305 7.86157 11.338C8.02732 11.3709 8.19912 11.354 8.35524 11.2893C8.51137 11.2247 8.64482 11.1152 8.7387 10.9746C8.83259 10.8341 8.8827 10.6689 8.8827 10.4999C8.88244 10.2734 8.79234 10.0562 8.63216 9.89605C8.47197 9.73587 8.2548 9.64577 8.02827 9.64551ZM8.02827 10.7802C7.97284 10.7802 7.91867 10.7637 7.87258 10.7329C7.8265 10.7021 7.79059 10.6584 7.76938 10.6072C7.74817 10.556 7.74262 10.4996 7.75343 10.4453C7.76424 10.3909 7.79093 10.341 7.83012 10.3018C7.86931 10.2626 7.91924 10.2359 7.9736 10.2251C8.02796 10.2143 8.0843 10.2198 8.1355 10.2411C8.1867 10.2623 8.23047 10.2982 8.26126 10.3443C8.29205 10.3903 8.30848 10.4445 8.30848 10.4999C8.3084 10.5742 8.27885 10.6455 8.22631 10.698C8.17378 10.7505 8.10256 10.7801 8.02827 10.7802Z" fill="white"/>
</svg>
