<svg width="96" height="126" viewBox="0 0 96 126" fill="none" xmlns="http://www.w3.org/2000/svg">
<path d="M92.8221 3.23715C90.9068 2.35467 88.6498 2.69807 87.0832 4.10981L78.8168 11.4291C78.5919 11.6292 78.2527 11.628 78.029 11.4267L66.7816 1.36706C64.7474 -0.455685 61.6678 -0.455685 59.6336 1.36706L48.3964 11.4175C48.1703 11.6194 47.8287 11.6194 47.6026 11.4175L36.3642 1.36706C34.33 -0.455388 31.2504 -0.455388 29.2162 1.36706L17.9673 11.4267C17.7421 11.628 17.402 11.6289 17.1757 11.4288L8.90184 4.10981C6.70681 2.1578 3.34487 2.35467 1.39286 4.54971C0.517532 5.53405 0.038615 6.80818 0.0487413 8.1252V117.875C0.0290843 120.817 2.39805 123.218 5.34005 123.238C6.65797 123.247 7.9321 122.766 8.91674 121.89L17.1831 114.571C17.408 114.371 17.7472 114.372 17.9709 114.574L29.2183 124.633C31.2525 126.456 34.3321 126.456 36.3663 124.633L47.6047 114.583C47.8308 114.381 48.1724 114.381 48.3985 114.583L59.6369 124.633C61.6714 126.455 64.7507 126.455 66.7849 124.633L78.0344 114.573C78.2596 114.372 78.5997 114.371 78.826 114.571L87.0999 121.89C89.2958 123.841 92.6574 123.643 94.6085 121.447C95.4824 120.464 95.9607 119.191 95.9512 117.875V8.1252C95.9792 6.01683 94.7485 4.09432 92.8221 3.23715ZM19.7674 42.7475H49.4275C50.7433 42.7475 51.8101 43.8143 51.8101 45.1301C51.8101 46.446 50.7433 47.5128 49.4275 47.5128H19.7674C18.4516 47.5128 17.3847 46.446 17.3847 45.1301C17.3847 43.8143 18.4516 42.7475 19.7674 42.7475ZM76.2325 83.2528H19.7674C18.4516 83.2528 17.3847 82.186 17.3847 80.8702C17.3847 79.5543 18.4516 78.4875 19.7674 78.4875H76.2325C77.5483 78.4875 78.6152 79.5543 78.6152 80.8702C78.6152 82.186 77.5483 83.2528 76.2325 83.2528ZM76.2325 65.3828H19.7674C18.4516 65.3828 17.3847 64.316 17.3847 63.0001C17.3847 61.6843 18.4516 60.6175 19.7674 60.6175H76.2325C77.5483 60.6175 78.6152 61.6843 78.6152 63.0001C78.6152 64.316 77.5483 65.3828 76.2325 65.3828Z" fill="#ED961A"/>
</svg>
